\relax 
\ifx\hyper@anchor\@undefined
\global \let \oldcontentsline\contentsline
\gdef \contentsline#1#2#3#4{\oldcontentsline{#1}{#2}{#3}}
\global \let \oldnewlabel\newlabel
\gdef \newlabel#1#2{\newlabelxx{#1}#2}
\gdef \newlabelxx#1#2#3#4#5#6{\oldnewlabel{#1}{{#2}{#3}}}
\AtEndDocument{\let \contentsline\oldcontentsline
\let \newlabel\oldnewlabel}
\else
\global \let \hyper@last\relax 
\fi

\@writefile{toc}{\contentsline {section}{\numberline {1}Introduction to Dicelab}{4}{section.1}}
\newlabel{sec:dicelab}{{1}{4}{Introduction to Dicelab\relax }{section.1}{}}
\@writefile{toc}{\contentsline {section}{\numberline {2}Installation and Usage}{5}{section.2}}
\newlabel{sec:installation}{{2}{5}{Installation and Usage\relax }{section.2}{}}
\@writefile{toc}{\contentsline {subsection}{\numberline {2.1}Building from Source}{5}{subsection.2.1}}
\newlabel{sec:building}{{2.1}{5}{Building from Source\relax }{subsection.2.1}{}}
\@writefile{toc}{\contentsline {subsection}{\numberline {2.2}Packages}{5}{subsection.2.2}}
\newlabel{sec:packages}{{2.2}{5}{Packages\relax }{subsection.2.2}{}}
\@writefile{toc}{\contentsline {subsection}{\numberline {2.3}Windows}{5}{subsection.2.3}}
\newlabel{sec:windows}{{2.3}{5}{Windows\relax }{subsection.2.3}{}}
\@writefile{toc}{\contentsline {subsection}{\numberline {2.4}Running}{5}{subsection.2.4}}
\newlabel{sec:running}{{2.4}{5}{Running\relax }{subsection.2.4}{}}
\@writefile{toc}{\contentsline {section}{\numberline {3}The Dicelab Language}{7}{section.3}}
\newlabel{sec:language}{{3}{7}{The Dicelab Language\relax }{section.3}{}}
\@writefile{toc}{\contentsline {subsection}{\numberline {3.1}Introduction}{7}{subsection.3.1}}
\newlabel{sec:introduction}{{3.1}{7}{Introduction\relax }{subsection.3.1}{}}
\@writefile{toc}{\contentsline {subsection}{\numberline {3.2}Reference}{9}{subsection.3.2}}
\newlabel{sec:reference}{{3.2}{9}{Reference\relax }{subsection.3.2}{}}
\@writefile{toc}{\contentsline {subsubsection}{\numberline {3.2.1}Scalars, Lists and Probabilities}{9}{subsubsection.3.2.1}}
\newlabel{sec:scalar_lists}{{3.2.1}{9}{Scalars, Lists and Probabilities\relax }{subsubsection.3.2.1}{}}
\@writefile{toc}{\contentsline {subsubsection}{\numberline {3.2.2}Grammar}{10}{subsubsection.3.2.2}}
\newlabel{sec:grammar}{{3.2.2}{10}{Grammar\relax }{subsubsection.3.2.2}{}}
\@writefile{toc}{\contentsline {subsubsection}{\numberline {3.2.3}Dice Operator}{10}{subsubsection.3.2.3}}
\newlabel{sec:dice}{{3.2.3}{10}{Dice Operator\relax }{subsubsection.3.2.3}{}}
\@writefile{toc}{\contentsline {subsubsection}{\numberline {3.2.4}Arithmetic Operators}{11}{subsubsection.3.2.4}}
\newlabel{sec:arithmetics}{{3.2.4}{11}{Arithmetic Operators\relax }{subsubsection.3.2.4}{}}
\@writefile{toc}{\contentsline {subsubsection}{\numberline {3.2.5}Scalar Concatenation Operator}{11}{subsubsection.3.2.5}}
\newlabel{sec:scalar_concatenation}{{3.2.5}{11}{Scalar Concatenation Operator\relax }{subsubsection.3.2.5}{}}
\@writefile{toc}{\contentsline {subsubsection}{\numberline {3.2.6}Summation and Product Operators}{12}{subsubsection.3.2.6}}
\newlabel{sec:sum_prod}{{3.2.6}{12}{Summation and Product Operators\relax }{subsubsection.3.2.6}{}}
\@writefile{toc}{\contentsline {subsubsection}{\numberline {3.2.7}List Size Operator}{12}{subsubsection.3.2.7}}
\newlabel{sec:count}{{3.2.7}{12}{List Size Operator\relax }{subsubsection.3.2.7}{}}
\@writefile{toc}{\contentsline {subsubsection}{\numberline {3.2.8}List Repetition Operator}{12}{subsubsection.3.2.8}}
\newlabel{sec:repetition}{{3.2.8}{12}{List Repetition Operator\relax }{subsubsection.3.2.8}{}}
\@writefile{toc}{\contentsline {subsubsection}{\numberline {3.2.9}Range Operator}{13}{subsubsection.3.2.9}}
\newlabel{sec:range}{{3.2.9}{13}{Range Operator\relax }{subsubsection.3.2.9}{}}
\@writefile{toc}{\contentsline {subsubsection}{\numberline {3.2.10}List Concatenation Operator}{13}{subsubsection.3.2.10}}
\newlabel{sec:list_concatenation}{{3.2.10}{13}{List Concatenation Operator\relax }{subsubsection.3.2.10}{}}
\@writefile{toc}{\contentsline {subsubsection}{\numberline {3.2.11}List Ordering Operators}{13}{subsubsection.3.2.11}}
\newlabel{sec:sort_perm_rev}{{3.2.11}{13}{List Ordering Operators\relax }{subsubsection.3.2.11}{}}
\@writefile{toc}{\contentsline {subsubsection}{\numberline {3.2.12}Low and High Operators}{14}{subsubsection.3.2.12}}
\newlabel{sec:low_high}{{3.2.12}{14}{Low and High Operators\relax }{subsubsection.3.2.12}{}}
\@writefile{toc}{\contentsline {subsubsection}{\numberline {3.2.13}First and Last Operators}{14}{subsubsection.3.2.13}}
\newlabel{sec:first_last}{{3.2.13}{14}{First and Last Operators\relax }{subsubsection.3.2.13}{}}
\@writefile{toc}{\contentsline {subsubsection}{\numberline {3.2.14}Filtering Operators}{15}{subsubsection.3.2.14}}
\newlabel{sec:drop_keep}{{3.2.14}{15}{Filtering Operators\relax }{subsubsection.3.2.14}{}}
\@writefile{toc}{\contentsline {subsubsection}{\numberline {3.2.15}Let Operator}{15}{subsubsection.3.2.15}}
\newlabel{sec:let}{{3.2.15}{15}{Let Operator\relax }{subsubsection.3.2.15}{}}
\@writefile{toc}{\contentsline {subsubsection}{\numberline {3.2.16}Foreach Operator}{16}{subsubsection.3.2.16}}
\newlabel{sec:foreach}{{3.2.16}{16}{Foreach Operator\relax }{subsubsection.3.2.16}{}}
\@writefile{toc}{\contentsline {subsubsection}{\numberline {3.2.17}While Operator}{16}{subsubsection.3.2.17}}
\newlabel{sec:while}{{3.2.17}{16}{While Operator\relax }{subsubsection.3.2.17}{}}
\@writefile{toc}{\contentsline {subsubsection}{\numberline {3.2.18}If Operator}{16}{subsubsection.3.2.18}}
\newlabel{sec:if}{{3.2.18}{16}{If Operator\relax }{subsubsection.3.2.18}{}}
\@writefile{toc}{\contentsline {subsection}{\numberline {3.3}Examples}{17}{subsection.3.3}}
\newlabel{sec:examples}{{3.3}{17}{Examples\relax }{subsection.3.3}{}}
\@writefile{toc}{\contentsline {section}{\numberline {4}Feedback}{18}{section.4}}
\newlabel{sec:feedback}{{4}{18}{Feedback\relax }{section.4}{}}
